{
    "paths": [
        {
            "name": "/",
            "lambdaFunction": "faceitsite97fc184c",
            "privacy": {
                "private": true,
                "auth": [
                    "/POST",
                    "/GET",
                    "/PUT",
                    "/PATCH",
                    "/DELETE"
                ]
            }
        }
    ],
    "resourceName": "api791107a9",
    "apiName": "api791107a9",
    "functionArns": [
        {
            "lambdaFunction": "faceitsite97fc184c"
        }
    ],
    "privacy": {
        "auth": 1,
        "unauth": 0,
        "authRoleName": "faceitsite-prod-20190615092918-authRole",
        "unAuthRoleName": "faceitsite-prod-20190615092918-unauthRole"
    },
    "dependsOn": [
        {
            "category": "function",
            "resourceName": "faceitsite97fc184c",
            "attributes": [
                "Name",
                "Arn"
            ]
        }
    ]
}
